<svg xmlns="http://www.w3.org/2000/svg" width="134" height="122" fill="none" viewBox="0 0 134 122">
    <path fill="#372719" fill-rule="evenodd" d="M1.54 25.02C.28 25.529-.33 26.964.18 28.226l8.227 20.401c.254.63.758 1.127 1.39 1.374l18.929 7.365c1.267.493 2.694-.136 3.186-1.403.493-1.268-.135-2.696-1.402-3.189l-17.936-6.979-7.83-19.413c-.508-1.261-1.942-1.871-3.203-1.362z" clip-rule="evenodd"/>
    <path fill="#E1E0E9" d="M17.168 121.741c3.65-2.494 26.38-4.409 53.9-4.409 27.518 0 50.249 1.922 53.899 4.409H17.168z"/>
    <path fill="#372719" fill-rule="evenodd" d="M54.391 77.195c-1.359 0-2.461 1.103-2.461 2.463v37.416h-3.538c-1.36 0-2.462 1.102-2.462 2.463 0 1.36 1.102 2.463 2.462 2.463h6c1.359 0 2.46-1.103 2.46-2.463V79.658c0-1.36-1.101-2.463-2.46-2.463zM75.75 76.9c-1.359 0-2.461 1.102-2.461 2.463v37.409h-3.544c-1.36 0-2.462 1.103-2.462 2.463s1.102 2.463 2.462 2.463h6.005c1.36 0 2.462-1.103 2.462-2.463V79.363c0-1.36-1.102-2.463-2.462-2.463z" clip-rule="evenodd"/>
    <path fill="#C68C5C" d="M43.807.924L112.87 0l-13.76 13.923H26.183l17.624-13z"/>
    <path fill="#B7763B" d="M112.869 84.585H98.906l.203-70.662 13.76 6.312v64.35z"/>
    <path fill="#AF672C" d="M99.11 13.923l13.759 6.312L134 15.82l-17.445-6.645-17.446 4.748z"/>
    <path fill="#E5E3EB" d="M51.672 13.923h18.903L80.532.542H62.643L51.672 13.923z"/>
    <path fill="#DA9F66" d="M98.906 84.585H26.184V13.923h72.925l-.203 70.662z"/>
    <path fill="#E5E3EB" d="M51.672 13.923v12.334l18.903 4.859V13.923H51.671z"/>
    <path fill="#fff" d="M48.94 59.596c0 7.26 5.882 13.147 13.137 13.147 7.255 0 13.138-5.887 13.138-13.147H48.939z"/>
    <path fill="#3A2211" d="M70.089 46.763c0 3.633 2.941 6.577 6.572 6.577 3.63 0 6.572-2.944 6.572-6.577s-2.941-6.57-6.572-6.57c-3.63-.007-6.572 2.937-6.572 6.57zM41.924 46.763c0 3.633 2.942 6.577 6.572 6.577 3.625 0 6.572-2.944 6.572-6.577s-2.941-6.57-6.572-6.57c-3.63-.007-6.572 2.937-6.572 6.57z"/>
    <path fill="#3A2211" fill-rule="evenodd" d="M83.565 33.172l.331-.862c.476.183.714.717.531 1.194-.183.476-.716.714-1.192.531l-.005-.002-.033-.012-.145-.05c-.13-.043-.327-.105-.581-.174-.51-.139-1.245-.307-2.135-.42-1.786-.224-4.153-.22-6.557.663-.479.175-1.009-.07-1.184-.55-.176-.479.07-1.01.549-1.185 2.764-1.014 5.45-1.01 7.423-.76.99.125 1.812.312 2.39.47.288.078.517.15.677.203.08.026.142.048.186.064l.053.02.015.005.005.002h.002v.001l-.33.862zM51.831 33.172l.331-.862c.476.183.714.717.531 1.194-.182.476-.716.714-1.192.531l-.005-.002-.033-.012-.144-.05c-.13-.043-.328-.105-.582-.174-.51-.139-1.245-.307-2.135-.42-1.785-.224-4.153-.22-6.557.663-.479.175-1.009-.07-1.184-.55-.176-.479.07-1.01.549-1.185 2.765-1.014 5.45-1.01 7.423-.76.99.125 1.812.312 2.39.47.288.078.517.15.677.203.08.026.142.048.187.064l.052.02.015.005.005.002h.002v.001l-.33.862z" clip-rule="evenodd"/>
    <path fill="#fff" d="M78.255 41.874c0 1.114.904 2.013 2.012 2.013s2.012-.905 2.012-2.013c0-1.115-.904-2.014-2.012-2.014s-2.012.905-2.012 2.014zM49.82 41.874c0 1.114.904 2.013 2.011 2.013 1.108 0 2.013-.905 2.013-2.013 0-1.115-.905-2.014-2.013-2.014-1.107 0-2.012.905-2.012 2.014z"/>
    <path fill="#EFA686" d="M85.498 54.497c-1.785 2.279-2.031 6.398.246 8.184 2.277 1.786 6.215.56 8-1.718 1.784-2.278 1.384-5.573-.893-7.359-2.277-1.785-5.569-1.385-7.353.893zM39.321 54.497c1.785 2.279 2.03 6.398-.246 8.184-2.277 1.786-6.215.56-8-1.718-1.784-2.278-1.384-5.573.893-7.359 2.277-1.785 5.569-1.385 7.353.893z"/>
    <path fill="#372719" fill-rule="evenodd" d="M103.892 52.557c-.51 1.261.098 2.697 1.358 3.207l19.194 7.774-1.655 21.802c-.103 1.357.913 2.54 2.268 2.643 1.356.103 2.538-.913 2.641-2.27l1.79-23.597c.082-1.069-.537-2.067-1.53-2.47l-20.861-8.448c-1.26-.51-2.695.098-3.205 1.36z" clip-rule="evenodd"/>
</svg>
